<?xml version="1.0" encoding="UTF-8"?>
<svg width="527px" height="598px" viewBox="0 0 527 598" version="1.1" xmlns="http://www.w3.org/2000/svg" xmlns:xlink="http://www.w3.org/1999/xlink">
    <!-- Generator: Sketch 49 (51002) - http://www.bohemiancoding.com/sketch -->
    <title>Rectangle</title>
    <desc>Created with Sketch.</desc>
    <defs></defs>
    <g id="Page-1" stroke="none" stroke-width="1" fill="none" fill-rule="evenodd" opacity="0.5">
        <g id="FSBC-light" transform="translate(0.000000, -2151.000000)" stroke="#CCE6FF">
            <g id="//Header" transform="translate(-692.000000, -644.000000)">
                <path d="M920,2795.5 C755.143002,2795.5 621.5,2929.143 621.5,3094 C621.5,3258.857 755.143002,3392.5 920,3392.5 C1084.857,3392.5 1218.5,3258.857 1218.5,3094 C1218.5,2929.143 1084.857,2795.5 920,2795.5 Z" id="Rectangle"></path>
            </g>
        </g>
    </g>
</svg>